<svg xmlns="http://www.w3.org/2000/svg" width="8.252" height="10.775" viewBox="0 0 8.252 10.775">
 viewBox="0 0 8 8" style="enable-background:new 0 0 10.6 10.6;" xml:space="preserve">
<style type="text/css">
	.st1{fill:#00427F;}
</style>
<path id="Path_209" class="st1" data-name="Path 209" d="M8.246,4.493c0,2.133-2.417,4.877-3.554,6.042a.81.81,0,0,1-1.152,0h0C2.389,9.412,0,6.739,0,4.123A4.123,4.123,0,0,1,4.095,0,4.265,4.265,0,0,1,8.246,4.493ZM4.123,2.062A1.663,1.663,0,1,0,5.786,3.725h0A1.649,1.649,0,0,0,4.123,2.062Z"/>
</svg>
