<svg xmlns="http://www.w3.org/2000/svg" width="38" height="38" viewBox="0 0 38 38">
  <g id="Group_195" data-name="Group 195" transform="translate(64 311) rotate(180)">
    <g id="Group_193" data-name="Group 193" transform="translate(7081 3723.344)">
      <g id="Group_168" data-name="Group 168" transform="translate(-7055 -3450.344)">
        <g id="Group_138" data-name="Group 138" transform="translate(8.709 8.894)">
          <g id="Polygon_8" data-name="Polygon 8" transform="translate(0 20.48) rotate(-90)" fill="none">
            <path d="M8.544,2.714a2,2,0,0,1,3.392,0l6.631,10.61a2,2,0,0,1-1.7,3.06H3.608a2,2,0,0,1-1.7-3.06Z" stroke="none"/>
            <path d="M 10.2398681640625 3.773594856262207 L 3.608488082885742 14.3837947845459 C 3.608488082885742 14.3837947845459 3.608488082885742 14.3837947845459 3.608488082885742 14.3837947845459 C 3.608491897583008 14.3837947845459 3.608495712280273 14.3837947845459 3.608497619628906 14.3837947845459 L 16.87123870849609 14.3837947845459 L 10.2398681640625 3.773594856262207 M 10.2398681640625 1.773590087890625 C 10.89203357696533 1.773590087890625 11.54419803619385 2.08692455291748 11.93586826324463 2.713594436645508 L 18.56723785400391 13.32379531860352 C 19.3997974395752 14.65588474273682 18.44210815429688 16.3837947845459 16.87123870849609 16.3837947845459 L 3.608497619628906 16.3837947845459 C 2.037628173828125 16.3837947845459 1.079938888549805 14.65588474273682 1.912498474121094 13.32379531860352 L 8.543868064880371 2.713594436645508 C 8.935538291931152 2.08692455291748 9.587702751159668 1.773590087890625 10.2398681640625 1.773590087890625 Z" stroke="none" fill="#fff"/>
          </g>
        </g>
        <g id="Rectangle_150" data-name="Rectangle 150" transform="translate(0 0)" fill="none" stroke="#fff" stroke-width="2">
          <rect width="38" height="38" rx="5" stroke="none"/>
          <rect x="1" y="1" width="36" height="36" rx="4" fill="none"/>
        </g>
      </g>
    </g>
  </g>
</svg>
