<svg xmlns="http://www.w3.org/2000/svg" width="74.422" height="74.374" viewBox="0 0 74.422 74.374">
  <g id="QqCUIy.tif" transform="translate(-5026.52 -1771.42)">
    <g id="Group_185" data-name="Group 185" transform="translate(5026.52 1771.42)">
      <path id="Path_148" data-name="Path 148" d="M5062.612,1771.42h2.217c1.6.17,3.2.263,4.785.525a37.2,37.2,0,0,1,30.879,31.435c.2,1.377.3,2.767.448,4.152v2.217c-.048.415-.117.828-.142,1.244a35.846,35.846,0,0,1-3.657,13.9,37.172,37.172,0,0,1-70.136-22.115,37.216,37.216,0,0,1,31.445-30.909C5059.832,1771.67,5061.225,1771.567,5062.612,1771.42Zm1.151,6.811a30.41,30.41,0,1,0,30.367,30.452A30.426,30.426,0,0,0,5063.763,1778.231Z" transform="translate(-5026.519 -1771.42)" fill="#fff"/>
      <path id="Path_149" data-name="Path 149" d="M5246.336,1869.488c0,3.009-.019,6.018.023,9.027a1.957,1.957,0,0,0,.5,1.225c2.6,2.66,5.255,5.271,7.873,7.917a3.371,3.371,0,0,1-4.215,5.255,8.108,8.108,0,0,1-.822-.741c-2.9-2.89-5.772-5.8-8.689-8.669a4.414,4.414,0,0,1-1.418-3.372c.037-6.52.012-13.04.02-19.559a3.361,3.361,0,1,1,6.718-.19C5246.356,1863.417,5246.335,1866.452,5246.336,1869.488Z" transform="translate(-5205.771 -1843.442)" fill="#fff"/>
    </g>
  </g>
</svg>
